^P:\OAD\VRPQUIVAMARCHER\VRPQUIVAMARCHER\DEBUG\FONCTION.OBJ|P:\OAD\VRPQUIVAMARCHER\VRPQUIVAMARCHER\DEBUG\MAIN.OBJ
P:\OAD\VRPQUIVAMARCHER\DEBUG\VRPQUIVAMARCHER.EXE
P:\OAD\VRPQUIVAMARCHER\VRPQUIVAMARCHER\DEBUG\VRPQUIVAMARCHER.ILK
P:\OAD\VRPQUIVAMARCHER\DEBUG\VRPQUIVAMARCHER.PDB
